…
\###Comparing Australia as on gradescope

``` r
debt_clean %>% filter(country == 'Australia')
```

    # A tibble: 56 × 3
       country    year debt_as_percent_of_gdp
       <chr>     <dbl>                  <dbl>
     1 Australia  1960                   31.5
     2 Australia  1961                   30.3
     3 Australia  1962                   30.4
     4 Australia  1963                   29.3
     5 Australia  1964                   27.6
     6 Australia  1965                   NA  
     7 Australia  1966                   41.2
     8 Australia  1967                   39.2
     9 Australia  1968                   38.2
    10 Australia  1969                   35.7
    # ℹ 46 more rows

``` r
growth_clean %>% filter(country == 'Australia') %>% 
  select(country, year, growth_as_percent)
```

    # A tibble: 62 × 3
       country    year growth_as_percent
       <chr>     <dbl>             <dbl>
     1 Australia  1960             NA   
     2 Australia  1961              2.48
     3 Australia  1962              1.29
     4 Australia  1963              6.21
     5 Australia  1964              6.98
     6 Australia  1965              5.98
     7 Australia  1966              2.38
     8 Australia  1967              6.30
     9 Australia  1968              5.10
    10 Australia  1969              7.04
    # ℹ 52 more rows

## Step 4: Clean and pre-process the data

done in steps before Now merging two tables

``` r
source("merge_two_tables.R")
result <- merge_two_tables(growth_clean,debt_clean)

#Check the result for Australia
result %>% filter(country == 'Australia') %>%
  select(country,year,growth_as_percent,debt_as_percent_of_gdp)
```

    # A tibble: 62 × 4
       country    year growth_as_percent debt_as_percent_of_gdp
       <chr>     <dbl>             <dbl>                  <dbl>
     1 Australia  1960             NA                      31.5
     2 Australia  1961              2.48                   30.3
     3 Australia  1962              1.29                   30.4
     4 Australia  1963              6.21                   29.3
     5 Australia  1964              6.98                   27.6
     6 Australia  1965              5.98                   NA  
     7 Australia  1966              2.38                   41.2
     8 Australia  1967              6.30                   39.2
     9 Australia  1968              5.10                   38.2
    10 Australia  1969              7.04                   35.7
    # ℹ 52 more rows
